{
    "title": "Delete a Connectwise value minimum",
    "type": "object",
    "additionalProperties": false,
    "required": [
      "cw_value_minimum_id"
    ],
    "properties": {
      "cw_value_minimum_id": {
        "type": "integer",
        "description": "Connectwise value minimum ID"
      }
    }
  }